<?xml version="1.0" encoding="utf-8"?>
<!-- Generator: Adobe Illustrator 17.0.0, SVG Export Plug-In . SVG Version: 6.00 Build 0)  -->
<!DOCTYPE svg PUBLIC "-//W3C//DTD SVG 1.1//EN" "http://www.w3.org/Graphics/SVG/1.1/DTD/svg11.dtd">
<svg version="1.1" id="Calque_1" xmlns="http://www.w3.org/2000/svg" xmlns:xlink="http://www.w3.org/1999/xlink" x="0px" y="0px"
	 width="587.692px" height="453.544px" viewBox="0 0 587.692 453.544" enable-background="new 0 0 587.692 453.544"
	 xml:space="preserve">
<linearGradient id="SVGID_1_" gradientUnits="userSpaceOnUse" x1="122.1895" y1="524.0899" x2="465.5028" y2="-70.5462">
	<stop  offset="0" style="stop-color:#00254B"/>
	<stop  offset="0.2396" style="stop-color:#04244C"/>
	<stop  offset="0.4878" style="stop-color:#11214F"/>
	<stop  offset="0.7399" style="stop-color:#251D54"/>
	<stop  offset="0.9934" style="stop-color:#42165C"/>
	<stop  offset="1" style="stop-color:#43165C"/>
</linearGradient>
<rect x="0" y="0" fill="url(#SVGID_1_)" width="587.692" height="453.544"/>
<g>
	<g>
		<g>
			<path fill-rule="evenodd" clip-rule="evenodd" fill="#FFFFFF" d="M16.467,341.981l29.445,36.305h499.457l29.443-36.305H16.467z"
				/>
		</g>
		<g>
			<path fill="#FFFFFF" d="M577.813,334.981H13.463c-0.708,0-1.288,0.59-1.288,1.313c0,0.73,0.58,1.321,1.288,1.321h564.35
				c0.714,0,1.292-0.591,1.292-1.321C579.104,335.571,578.527,334.981,577.813,334.981z"/>
		</g>
		<path fill="#FFFFFF" d="M539.784,382.677h-12.568H51.491c-0.708,0-1.288,0.59-1.288,1.313c0,0.73,0.58,1.321,1.288,1.321h217.593
			c6.505,0.763,11.844,5.525,14.751,10.037c0.206,0.322,0.529,0.5,0.906,0.5c0.377,0,0.703-0.178,0.909-0.5
			c2.91-4.512,8.247-9.273,14.751-10.037h239.384c0.714,0,1.292-0.591,1.292-1.321C541.076,383.267,540.498,382.677,539.784,382.677
			z"/>
	</g>
	<g>
		<path fill="#00254B" d="M55.527,356.625l3.096,3.098l3.061-3.098l1.503,1.504l-3.079,3.078l3.079,3.079l-1.503,1.503l-3.079-3.096
			l-3.079,3.096l-1.503-1.503l3.096-3.079l-3.096-3.078L55.527,356.625z"/>
		<path fill="#00254B" d="M88.078,359.805v0.34c0,3.813-1.951,7.195-6.139,7.195c-3.938,0-6.425-3.328-6.425-7.051
			c0-3.85,2.56-7.16,6.586-7.16c2.291,0,4.296,1.164,5.334,3.222l-2.327,1.253c-0.537-1.217-1.683-2.148-3.079-2.148
			c-2.542,0-3.794,2.596-3.794,4.834c0,2.236,1.271,4.725,3.812,4.725c1.647,0,3.025-1.432,3.079-3.061h-2.864v-2.148H88.078z"/>
		<path fill="#00254B" d="M92.37,355.778v2.972h4.188v2.291H92.37v3.651h4.349v2.291h-6.98v-13.496h6.98v2.291H92.37z"/>
		<path fill="#00254B" d="M105.182,356.458c-0.501-0.681-1.146-1.11-2.022-1.11c-0.841,0-1.646,0.645-1.646,1.521
			c0,2.273,5.352,1.325,5.352,5.854c0,2.703-1.683,4.617-4.439,4.617c-1.861,0-3.222-1.073-4.152-2.631l1.7-1.664
			c0.358,1.038,1.307,1.969,2.435,1.969c1.074,0,1.736-0.913,1.736-1.951c0-1.396-1.289-1.789-2.345-2.201
			c-1.736-0.717-3.007-1.594-3.007-3.688c0-2.237,1.665-4.045,3.938-4.045c1.199,0,2.864,0.591,3.688,1.504L105.182,356.458z"/>
		<path fill="#00254B" d="M112.984,366.983h-2.631v-11.205h-2.721v-2.291h8.072v2.291h-2.721V366.983z"/>
		<path fill="#00254B" d="M119.657,366.983h-2.631v-13.496h2.631V366.983z"/>
		<path fill="#00254B" d="M127.961,367.34c-4.117,0-6.676-3.149-6.676-7.123c0-4.01,2.649-7.088,6.676-7.088
			c4.027,0,6.676,3.078,6.676,7.088C134.637,364.191,132.078,367.34,127.961,367.34z M127.961,355.725
			c-2.488,0-3.956,2.201-3.956,4.385c0,2.076,1.038,4.636,3.956,4.636s3.956-2.56,3.956-4.636
			C131.917,357.926,130.449,355.725,127.961,355.725z"/>
		<path fill="#00254B" d="M136.28,353.129h1.897l7.106,9.433h0.036v-9.075h2.631v13.765h-1.897l-7.106-9.433h-0.036v9.164h-2.631
			V353.129z"/>
		<path fill="#00254B" d="M150.218,353.129h1.897l7.106,9.433h0.036v-9.075h2.631v13.765h-1.897l-7.106-9.433h-0.036v9.164h-2.631
			V353.129z"/>
		<path fill="#00254B" d="M166.914,364.137l-1.109,2.846h-2.774l5.262-13.854h2.041l5.119,13.854h-2.811l-1.038-2.846H166.914z
			 M169.187,357.084h-0.036l-1.486,4.904h3.204L169.187,357.084z"/>
		<path fill="#00254B" d="M179.243,366.983h-2.631v-13.496h2.631V366.983z"/>
		<path fill="#00254B" d="M190.643,366.983h-3.186l-3.275-5.441h-0.036v5.441h-2.631v-13.496h3.562c2.667,0,4.51,1.182,4.51,4.063
			c0,1.718-0.948,3.437-2.756,3.741L190.643,366.983z M184.146,359.698h0.34c1.45,0,2.47-0.43,2.47-2.076
			c0-1.664-1.056-1.986-2.452-1.986h-0.358V359.698z"/>
		<path fill="#00254B" d="M194.489,355.778v2.972h4.188v2.291h-4.188v3.651h4.349v2.291h-6.98v-13.496h6.98v2.291H194.489z"/>
		<path fill="#00254B" d="M206.476,353.487h3.759c3.902,0,6.515,2.918,6.515,6.766c0,3.795-2.685,6.73-6.533,6.73h-3.741V353.487z
			 M209.107,364.692h0.43c3.239,0,4.492-1.79,4.492-4.457c0-2.936-1.503-4.457-4.492-4.457h-0.43V364.692z"/>
		<path fill="#00254B" d="M221.024,355.778v2.972h4.188v2.291h-4.188v3.651h4.349v2.291h-6.98v-13.496h6.98v2.291H221.024z"/>
		<path fill="#00254B" d="M242.14,366.983h-3.186l-3.275-5.441h-0.036v5.441h-2.631v-13.496h3.562c2.667,0,4.51,1.182,4.51,4.063
			c0,1.718-0.948,3.437-2.756,3.741L242.14,366.983z M235.643,359.698h0.34c1.45,0,2.47-0.43,2.47-2.076
			c0-1.664-1.056-1.986-2.452-1.986h-0.358V359.698z"/>
		<path fill="#00254B" d="M245.986,355.778v2.972h4.188v2.291h-4.188v3.651h4.349v2.291h-6.98v-13.496h6.98v2.291H245.986z
			 M249.279,350.159l-2.703,2.685l-1.271-0.788l2.148-3.007L249.279,350.159z"/>
		<path fill="#00254B" d="M258.798,356.458c-0.501-0.681-1.146-1.11-2.022-1.11c-0.841,0-1.646,0.645-1.646,1.521
			c0,2.273,5.352,1.325,5.352,5.854c0,2.703-1.683,4.617-4.439,4.617c-1.861,0-3.222-1.073-4.152-2.631l1.7-1.664
			c0.358,1.038,1.307,1.969,2.435,1.969c1.074,0,1.736-0.913,1.736-1.951c0-1.396-1.289-1.789-2.345-2.201
			c-1.736-0.717-3.007-1.594-3.007-3.688c0-2.237,1.665-4.045,3.938-4.045c1.199,0,2.863,0.591,3.687,1.504L258.798,356.458z"/>
		<path fill="#00254B" d="M264.845,355.778v2.972h4.188v2.291h-4.188v3.651h4.349v2.291h-6.98v-13.496h6.98v2.291H264.845z"/>
		<path fill="#00254B" d="M280.432,366.983h-3.186l-3.275-5.441h-0.036v5.441h-2.631v-13.496h3.562c2.667,0,4.51,1.182,4.51,4.063
			c0,1.718-0.948,3.437-2.756,3.741L280.432,366.983z M273.935,359.698h0.34c1.45,0,2.47-0.43,2.47-2.076
			c0-1.664-1.056-1.986-2.452-1.986h-0.358V359.698z"/>
		<path fill="#00254B" d="M286.497,362.581h0.036l3.007-9.094h2.828l-5.245,13.854h-1.539l-5.155-13.854h2.828L286.497,362.581z"/>
		<path fill="#00254B" d="M294.048,364.137l-1.109,2.846h-2.774l5.262-13.854h2.04l5.119,13.854h-2.811l-1.038-2.846H294.048z
			 M296.321,357.084h-0.035l-1.486,4.904h3.204L296.321,357.084z"/>
		<path fill="#00254B" d="M306.698,366.983h-2.631v-11.205h-2.721v-2.291h8.072v2.291h-2.721V366.983z"/>
		<path fill="#00254B" d="M313.372,366.983h-2.631v-13.496h2.631V366.983z"/>
		<path fill="#00254B" d="M321.677,367.34c-4.117,0-6.677-3.149-6.677-7.123c0-4.01,2.649-7.088,6.677-7.088
			c4.026,0,6.676,3.078,6.676,7.088C328.353,364.191,325.793,367.34,321.677,367.34z M321.677,355.725
			c-2.488,0-3.956,2.201-3.956,4.385c0,2.076,1.038,4.636,3.956,4.636c2.917,0,3.955-2.56,3.955-4.636
			C325.632,357.926,324.164,355.725,321.677,355.725z"/>
		<path fill="#00254B" d="M329.995,353.129h1.897l7.105,9.433h0.036v-9.075h2.631v13.765h-1.897l-7.105-9.433h-0.036v9.164h-2.631
			V353.129z"/>
		<path fill="#00254B" d="M350.288,356.458c-0.501-0.681-1.146-1.11-2.022-1.11c-0.842,0-1.646,0.645-1.646,1.521
			c0,2.273,5.352,1.325,5.352,5.854c0,2.703-1.683,4.617-4.439,4.617c-1.861,0-3.222-1.073-4.152-2.631l1.7-1.664
			c0.358,1.038,1.307,1.969,2.435,1.969c1.074,0,1.736-0.913,1.736-1.951c0-1.396-1.289-1.789-2.345-2.201
			c-1.736-0.717-3.007-1.594-3.007-3.688c0-2.237,1.664-4.045,3.938-4.045c1.199,0,2.863,0.591,3.688,1.504L350.288,356.458z"/>
		<path fill="#00254B" d="M361.864,366.983h-2.632v-13.496h3.58c2.828,0,4.672,1.129,4.672,4.189c0,2.863-1.558,4.26-4.313,4.26
			h-1.307V366.983z M361.864,359.752h0.537c1.557,0,2.398-0.341,2.398-2.095c0-1.736-1.003-1.987-2.471-1.987h-0.465V359.752z"/>
		<path fill="#00254B" d="M375.071,367.34c-4.116,0-6.676-3.149-6.676-7.123c0-4.01,2.648-7.088,6.676-7.088
			s6.676,3.078,6.676,7.088C381.746,364.191,379.188,367.34,375.071,367.34z M375.071,355.725c-2.488,0-3.955,2.201-3.955,4.385
			c0,2.076,1.038,4.636,3.955,4.636c2.918,0,3.956-2.56,3.956-4.636C379.027,357.926,377.559,355.725,375.071,355.725z"/>
		<path fill="#00254B" d="M383.318,353.487h2.631v7.554c0,1.665,0.144,4.009,2.381,4.009s2.381-2.344,2.381-4.009v-7.554h2.631
			v8.072c0,3.294-1.396,5.781-5.012,5.781s-5.012-2.487-5.012-5.781V353.487z"/>
		<path fill="#00254B" d="M404.685,366.983h-3.186l-3.275-5.441h-0.036v5.441h-2.631v-13.496h3.562c2.667,0,4.511,1.182,4.511,4.063
			c0,1.718-0.948,3.437-2.757,3.741L404.685,366.983z M398.188,359.698h0.34c1.45,0,2.471-0.43,2.471-2.076
			c0-1.664-1.057-1.986-2.452-1.986h-0.358V359.698z"/>
		<path fill="#00254B" d="M420.557,366.983h-3.187l-3.275-5.441h-0.035v5.441h-2.632v-13.496h3.563c2.667,0,4.51,1.182,4.51,4.063
			c0,1.718-0.948,3.437-2.756,3.741L420.557,366.983z M414.06,359.698h0.34c1.45,0,2.47-0.43,2.47-2.076
			c0-1.664-1.056-1.986-2.452-1.986h-0.357V359.698z"/>
		<path fill="#00254B" d="M424.403,355.778v2.972h4.188v2.291h-4.188v3.651h4.349v2.291h-6.98v-13.496h6.98v2.291H424.403z"/>
		<path fill="#00254B" d="M437.215,356.458c-0.501-0.681-1.146-1.11-2.022-1.11c-0.842,0-1.646,0.645-1.646,1.521
			c0,2.273,5.352,1.325,5.352,5.854c0,2.703-1.683,4.617-4.439,4.617c-1.861,0-3.222-1.073-4.152-2.631l1.7-1.664
			c0.358,1.038,1.307,1.969,2.435,1.969c1.074,0,1.736-0.913,1.736-1.951c0-1.396-1.289-1.789-2.345-2.201
			c-1.736-0.717-3.007-1.594-3.007-3.688c0-2.237,1.664-4.045,3.938-4.045c1.199,0,2.863,0.591,3.688,1.504L437.215,356.458z"/>
		<path fill="#00254B" d="M445.016,366.983h-2.631v-11.205h-2.721v-2.291h8.072v2.291h-2.721V366.983z"/>
		<path fill="#00254B" d="M450.383,364.137l-1.109,2.846h-2.774l5.263-13.854h2.04l5.119,13.854h-2.811l-1.038-2.846H450.383z
			 M452.656,357.084h-0.035l-1.486,4.904h3.204L452.656,357.084z"/>
		<path fill="#00254B" d="M460.01,353.487h2.631v7.554c0,1.665,0.144,4.009,2.381,4.009s2.38-2.344,2.38-4.009v-7.554h2.631v8.072
			c0,3.294-1.396,5.781-5.011,5.781c-3.616,0-5.012-2.487-5.012-5.781V353.487z"/>
		<path fill="#00254B" d="M481.377,366.983h-3.187l-3.275-5.441h-0.035v5.441h-2.632v-13.496h3.563c2.667,0,4.51,1.182,4.51,4.063
			c0,1.718-0.948,3.437-2.756,3.741L481.377,366.983z M474.88,359.698h0.34c1.45,0,2.47-0.43,2.47-2.076
			c0-1.664-1.056-1.986-2.452-1.986h-0.357V359.698z"/>
		<path fill="#00254B" d="M485.348,364.137l-1.109,2.846h-2.774l5.262-13.854h2.041l5.119,13.854h-2.811l-1.038-2.846H485.348z
			 M487.621,357.084h-0.036l-1.485,4.904h3.204L487.621,357.084z"/>
		<path fill="#00254B" d="M495.045,353.129h1.897l7.105,9.433h0.036v-9.075h2.631v13.765h-1.897l-7.105-9.433h-0.036v9.164h-2.631
			V353.129z"/>
		<path fill="#00254B" d="M513.369,366.983h-2.631v-11.205h-2.721v-2.291h8.072v2.291h-2.721V366.983z"/>
		<path fill="#00254B" d="M529.598,356.625l3.096,3.098l3.062-3.098l1.503,1.504l-3.078,3.078l3.078,3.079l-1.503,1.503
			l-3.079-3.096l-3.078,3.096l-1.504-1.503l3.097-3.079l-3.097-3.078L529.598,356.625z"/>
	</g>
</g>
<path fill="#FFFFFF" d="M407.05,144.038c-19.373-48.344-68.701-78.551-120.607-72.803c0.45,2.716,0.9,5.433,1.35,8.149
	c2.715-6.571,9.267-8.156,7.336-16.401c-1.737-7.417-13.062-5.16-18.482-4.204c-5.37,0.947-13.878,2.93-14.92,9.158
	c-0.464,2.776-0.478,5.866,1.191,8.311c1.964,2.877,7.133,3.369,9.681,6.154c0.321-2.965,0.642-5.93,0.963-8.896
	c-52.332,12.735-87.858,59.351-89.567,112.679c-0.182,5.666,3.638,5.601,3.817,0c1.585-49.442,38.253-91.573,85.75-103.132
	c2.665-0.648,2.44-7.281,0.963-8.896c-1.19-1.302-2.342-2.367-3.797-3.385c-1.586-1.11-5.308-1.55-6.064-3.436
	c0.164,1.548,0.327,3.096,0.491,4.645c-0.032,0.191,4.615-1.666,5.007-1.833c2.638-1.123,5.54-1.657,8.347-2.152
	c3.08-0.543,12.05-1.946,14.009,1.516c-0.315-1.374-0.63-2.748-0.945-4.122c-0.017,0.507-0.034,1.014-0.051,1.521
	c0.315-1.374,0.63-2.748,0.945-4.122c-2.463,3.582-5.647,5.664-7.373,9.841c-0.488,1.182-1.313,8.444,1.35,8.149
	c50.252-5.564,99.018,22.869,117.908,70.007C406.199,155.403,407.946,146.275,407.05,144.038L407.05,144.038z M266.409,127.061
	c0.764-0.763,4.676,7.161,4.676,8.116c0,1.05-26.244,21.005-52.203,61.2c17.656-1.814,35.598-0.764,37.125,0.477
	c0.859,0.86-0.478,7.543-1.909,7.543c-31.016-1.241-44.091,2.482-44.854,1.718c-0.478-0.382-0.668-2.769-0.763-4.774
	c-1.241-0.477-1.814-1.146-1.814-2.005c0-2.005,16.033-28.07,50.295-62.823c-7.635-0.287-18.324-0.096-29.776,2.196
	c-1.145,0.287-1.717,0.096-1.813-1.05c-0.287-1.05-0.478-5.346-0.764-7.352c0-1.05,18.229-3.915,40.656-2.101L266.409,127.061z
	 M215.733,187.497c0.859-1.432,1.908-2.673,2.958-4.105c1.05-1.432,1.814-2.769,2.863-4.201c1.05-1.241,1.718-2.578,2.481-3.628
	c0.763-1.05,1.336-1.91,1.718-2.578l0.476-0.764l0.191-0.286h-0.096l-2.672,3.437c-1.622,2.196-3.627,4.774-5.63,7.543
	c-1.05,1.432-1.814,2.769-2.863,4.201c-0.859,1.432-1.717,2.578-2.386,3.724c-0.668,0.955-1.145,1.814-1.623,2.674
	c-0.285,0.382-0.381,0.477-0.476,0.763c-0.096,0.096-0.096,0.191-0.096,0.287h0.096l0.191-0.287
	c0.096-0.286,0.285-0.477,0.476-0.668c0.287-0.286,0.478-0.668,0.764-1.146c0.285-0.382,0.668-0.763,1.05-1.432
	c0.382-0.478,0.763-1.051,1.145-1.719L215.733,187.497z M232.625,167.352c1.05-1.146,1.527-2.1,2.195-2.769l0.859-1.05l-0.859,1.05
	c-0.668,0.668-1.241,1.527-2.29,2.674c-1.908,2.291-4.294,5.346-6.871,8.402l-3.437,4.678l-2.767,4.201
	c-0.382,0.668-0.764,1.051-1.05,1.718c-0.287,0.478-0.478,0.955-0.764,1.337c-0.287,0.382-0.382,0.573-0.476,0.86l-0.191,0.286
	l0.191-0.286c0.094-0.287,0.19-0.477,0.476-0.86c0.287-0.382,0.573-0.668,0.859-1.337l1.146-1.623
	c0.763-1.241,1.813-2.674,2.862-4.105c1.05-1.528,2.29-3.055,3.531-4.583c1.145-1.623,2.386-3.15,3.531-4.583L232.625,167.352z
	 M255.625,128.875h-0.287c-0.285,0-0.572,0-0.859-0.095c-0.763-0.096-1.718-0.191-3.149-0.191c-1.241,0-2.768-0.096-4.391,0
	c-1.622,0-3.244,0.096-5.058,0.191c-1.813,0.095-3.435,0.095-5.058,0.382c-1.622,0.286-3.149,0.286-4.39,0.573
	c-1.241,0.287-2.29,0.382-3.053,0.477c-0.478,0.096-0.764,0.191-0.86,0.191h-0.285l4.199-0.287c2.577-0.286,6.012-0.382,9.448-0.668
	l5.058-0.286c0.859,0,1.623-0.096,2.29-0.096c0.764,0,1.432-0.096,2.1-0.096c1.431,0,2.386-0.096,3.149-0.096H255.625z
	 M242.073,196.854h-0.191H242.073c0.096,0,0.096,0.096,0.382,0.096c0.382,0,0.859,0.096,1.527,0.096l4.39,0.286l4.39,0.287
	c0.669,0.096,1.145,0.096,1.432,0.191h0.573c0-0.096,0-0.096-0.096-0.096c-0.191,0-0.287,0-0.382-0.096
	c-0.382-0.096-0.763-0.287-1.432-0.382c-0.668-0.287-1.336-0.287-2.099-0.382c-0.763-0.096-1.527-0.191-2.386-0.191
	c-1.718-0.095-3.149-0.095-4.39,0c-0.669,0-1.145,0.096-1.527,0.096C242.36,196.854,242.169,196.854,242.073,196.854z
	 M316.797,178.427c0,3.628-13.647,26.447-22.713,26.447c-3.34,0-8.876-6.397-8.876-9.07v-0.764
	c-5.249,5.251-11.262,9.834-14.984,9.834c-6.012,0-13.361-9.547-13.361-14.512c0-15.372,24.718-38.763,35.121-38.763
	c8.207,0,10.402,13.367,8.112,13.367c-2.577,0-1.432-5.251-5.821-5.251c-9.067,0-31.017,22.532-31.017,35.23
	c0,1.718,0.763,2.578,2.195,2.578c8.113,0,22.141-19.668,26.15-24.823c0.476-0.86,0.859-1.241,1.145-1.241
	c1.05,0,6.394,6.301,6.394,7.542c0,1.146-8.208,16.613-6.108,16.613c7.444,0,17.464-21.1,19.469-23.105
	C313.266,171.744,316.797,176.327,316.797,178.427z M264.499,175.276c1.05-1.241,1.908-2.577,2.959-3.819
	c1.05-1.241,2.099-2.482,3.244-3.724c2.195-2.387,4.676-4.679,7.062-6.683c1.145-1.051,2.29-2.005,3.435-2.769
	c1.145-0.859,2.29-1.623,3.341-2.291c1.145-0.764,2.099-1.337,2.958-1.718c0.382-0.287,0.859-0.287,1.241-0.573
	c0.287-0.096,0.669-0.287,1.145-0.382l0.954-0.286c0.191-0.096,0.382-0.096,0.669-0.096c0.287,0,0.287-0.096,0.382-0.096h0.19
	h-0.572c-0.287,0-0.382,0.096-0.669,0.096l-0.954,0.191c-0.381,0.096-0.763,0.286-1.241,0.382c-0.381,0.287-0.859,0.287-1.241,0.573
	c-1.05,0.382-2.004,0.86-3.053,1.528c-2.195,1.241-4.486,2.96-7.062,4.965c-2.387,2.005-4.867,4.105-7.159,6.683
	c-1.05,1.241-2.195,2.482-3.244,3.819c-1.05,1.241-2.004,2.578-2.863,3.819c-0.859,1.241-1.717,2.578-2.386,3.819l-0.954,1.91
	l-0.859,1.814c-0.478,1.146-0.764,2.196-1.05,3.246c-0.287,0.478-0.287,0.955-0.382,1.337l-0.191,1.241
	c-0.096,0.668-0.096,1.241-0.096,1.623v0.668v-0.191c0-0.191,0-0.382,0.096-0.477v-0.668l0.191-0.955
	c0-0.382,0.096-0.764,0.287-1.146c0.096-0.668,0.287-1.146,0.381-1.432c0.287-0.954,0.669-2.005,1.146-3.15l0.859-1.719
	c0.287-0.668,0.668-1.146,1.05-1.814C262.78,177.758,263.64,176.517,264.499,175.276z M283.109,195.326l0.572-0.573l-0.572,0.477
	l-1.623,1.241c-0.668,0.668-1.432,1.146-2.29,1.814c-0.859,0.668-1.623,1.241-2.672,1.91l-1.432,0.954
	c-0.381,0.287-0.859,0.477-1.336,0.764c-0.476,0.286-0.954,0.382-1.431,0.668c-0.382,0.286-0.86,0.286-1.241,0.382
	c-0.096,0.096-0.287,0.096-0.573,0.096c-0.096,0.096-0.287,0.096-0.572,0.096h-0.86c-0.287,0-0.476-0.096-0.572-0.096h-0.191h0.191
	l0.572,0.191c0.287,0,0.573,0.096,0.86,0h0.572c0.287,0,0.478,0,0.669-0.096c0.381-0.096,0.859-0.096,1.241-0.382
	c0.476-0.095,0.954-0.286,1.431-0.573l1.432-0.763l1.432-0.955c1.05-0.668,1.814-1.337,2.672-2.005
	c0.859-0.668,1.527-1.146,2.195-1.814C282.249,196.185,282.727,195.708,283.109,195.326z M273.565,194.848l-0.096,0.096
	L273.565,194.848l0.381-0.286c0.382-0.287,0.669-0.573,1.336-0.955c0.478-0.382,1.05-0.859,1.718-1.527
	c0.668-0.477,1.241-1.146,1.908-1.814c0.669-0.668,1.241-1.241,1.718-1.91c0.668-0.668,1.05-1.241,1.527-1.718
	c0.381-0.477,0.668-1.05,0.954-1.337l0.381-0.477l-0.476,0.477l-1.05,1.146c-0.478,0.477-0.86,1.05-1.527,1.718l-1.814,1.91
	l-1.813,1.814c-0.669,0.668-1.145,1.146-1.623,1.528c-0.668,0.477-0.954,0.859-1.241,1.146L273.565,194.848z M287.212,155.703
	l0.478-0.286c0,0.096,0,0.096-0.096,0.096s-0.287,0.096-0.382,0.096c-0.285,0.286-0.668,0.382-1.336,0.668
	c-0.476,0.286-1.05,0.573-1.717,1.05c-0.669,0.382-1.336,0.764-2.004,1.241L280.341,160c-0.668,0.478-1.145,0.955-1.527,1.337
	l-1.05,1.051l-0.382,0.382c0.096-0.096,0.191-0.287,0.382-0.382l1.145-0.86l3.531-2.674l1.909-1.337
	c0.668-0.382,1.05-0.763,1.717-1.05C286.544,156.181,286.926,155.99,287.212,155.703z M354.015,177.472
	c-1.814,4.01-16.892,27.401-26.054,27.401c-1.623,0-8.876-3.628-8.876-10.884c0-9.643,9.83-23.105,9.83-27.688
	c0-0.477-2.481-1.814-4.294-2.482l-7.635,15.086c-1.718,3.437-6.49-3.629-5.249-5.92c1.814-3.819,3.818-8.402,5.727-12.221
	c-4.295-2.291-8.398-5.442-8.398-11.934c0-11.648,14.506-28.738,18.609-28.738c3.055,0,10.403,5.442,10.403,10.693
	c0,4.01-5.058,16.613-11.835,29.979c4.391,1.814,10.499,4.869,10.499,8.688s-12.789,27.688-9.543,27.688
	c6.68,0,18.609-20.623,20.518-24.06C349.244,170.502,355.256,174.608,354.015,177.472z M315.363,135.176l1.05-1.91l1.146-1.718
	l0.954-1.527c0.668-1.051,1.145-1.623,1.527-2.292l0.572-0.859l-0.191,0.191l-0.476,0.573c-0.382,0.668-1.051,1.146-1.718,2.196
	c-0.382,0.382-0.763,0.954-1.145,1.432l-1.145,1.719c-0.478,0.668-0.859,1.146-1.241,1.814l-1.145,2.005
	c-0.287,0.668-0.669,1.337-1.05,2.005l-0.86,2.005l-0.763,2.005c-0.287,0.668-0.382,1.241-0.478,1.718
	c-0.285,0.668-0.285,1.146-0.381,1.527c-0.096,0.287-0.096,0.764-0.096,1.241c-0.096,0.287,0,0.477-0.096,0.764v0.191
	c0,0.096,0,0.096,0.096,0.096v-0.287c0-0.287,0-0.477,0.096-0.764l0.285-1.146c0.096-0.286,0.191-0.764,0.478-1.432l0.669-1.718
	l0.763-1.91l2.004-3.914L315.363,135.176z M312.501,155.99c-0.096,0-0.096,0-0.096-0.096c0,0-0.096-0.096-0.191-0.382
	c-0.287-0.287-0.382-0.668-0.669-1.146c-0.285-0.478-0.476-1.051-0.668-1.814l-0.191-1.051c0-0.382-0.096-0.763-0.096-1.146v-1.05
	c0.096-0.287,0.096-0.668,0.096-1.146l0.287-1.91c0.287-0.477,0.287-0.955,0.382-1.337c0-0.096,0.096-0.286,0.096-0.382v-0.096
	c-0.096,0-0.096,0-0.096,0.096s-0.096,0.286-0.096,0.382l-0.478,1.337l-0.191,0.86c-0.096,0.382-0.191,0.763-0.191,1.05
	c-0.096,0.191-0.096,0.573-0.096,1.05c-0.094,0.287-0.094,0.668-0.094,1.146c0,0.287,0.094,0.668,0.19,1.146
	c0,0.287,0.096,0.668,0.191,1.146l0.764,1.815c0.285,0.477,0.476,0.859,0.763,1.146L312.501,155.99z M319.085,157.327
	c7.635-15.753,13.171-30.17,11.739-30.17c-2.29,0-14.793,15.563-14.793,24.728C316.032,154.463,317.081,155.895,319.085,157.327z
	 M325.384,147.111c0.669-1.432,1.145-2.578,1.623-4.01l0.763-1.814l0.573-1.718c0.285-1.05,0.476-1.91,0.763-2.578
	c0-0.286,0.096-0.477,0.096-0.764c0-0.095,0-0.191,0.096-0.191v-0.096c-0.096,0.286-0.191,0.668-0.382,0.954
	c-0.287,0.668-0.668,1.432-1.05,2.482c-0.763,2.196-1.908,4.774-3.149,7.447c-1.145,2.769-2.386,5.442-3.246,7.447l-1.526,3.341
	h0.096l0.572-0.859c0.287-0.668,0.763-1.241,1.241-2.291c0.478-0.86,1.05-1.91,1.718-3.342L325.384,147.111z M321.09,189.884
	c0,0.095,0,0.191-0.096,0.286s-0.191,0.382-0.287,0.764c-0.096,0.764-0.287,1.527-0.382,2.578c0,1.05,0.096,1.909,0.287,2.577
	l0.287,0.86c0.096,0.096,0.096,0.191,0.096,0.287c-0.096-0.096-0.096-0.191-0.096-0.287c0-0.287-0.096-0.477-0.096-0.86
	c-0.096-0.763-0.096-1.527-0.096-2.577l0.287-2.482c0-0.478,0-0.764,0.096-0.86V189.884z M324.048,181.673
	c0-0.096,0-0.096,0.096-0.191C324.048,181.578,324.048,181.578,324.048,181.673c-0.096,0.096-0.096,0.286-0.191,0.573l-0.763,2.101
	l-0.859,2.96c-0.096,0.477-0.287,1.05-0.382,1.718l-0.287,1.718c-0.096,0.668-0.191,1.146-0.191,1.814
	c-0.094,0.668,0,1.05-0.094,1.718l0.19,1.623l0.191,0.763c0,0.191,0.096,0.382,0.191,0.668c0,0.191,0.096,0.382,0.191,0.668
	c0.096,0.287,0.191,0.191,0.287,0.477c0.096,0.382,0.381,0.573,0.476,0.86l0.382,0.382c0,0.096,0,0.096,0.096,0.191h0.096h-0.096
	c0,0,0-0.096-0.096-0.191l-0.287-0.477c-0.287-0.286-0.382-0.573-0.476-0.859c-0.096-0.096-0.096-0.191-0.191-0.478
	c-0.096-0.286-0.191-0.477-0.191-0.573l-0.191-0.763c0-0.287-0.096-0.382-0.096-0.668c-0.096-0.478-0.096-0.955-0.096-1.623
	s0-1.05,0.096-1.718c0-0.668,0.096-1.05,0.191-1.718c0.096-0.668,0-1.146,0.287-1.814c0.096-0.668,0.096-1.146,0.381-1.623
	c0.287-1.146,0.478-2.101,0.764-2.96c0.191-1.05,0.381-1.718,0.572-2.1C323.952,182.055,324.048,181.959,324.048,181.673z
	 M387.988,172.603c1.527,0.764,2.863,2.482,2.863,4.678c0,3.819-14.412,27.593-30.826,27.593c-7.349,0-16.129-10.598-16.129-19.764
	c0-13.08,14.315-33.321,24.814-33.321c9.161,0,10.593,10.216,9.543,10.216c-0.287,0-0.478,0-0.573-0.096
	c0.096,0.287,0.096,0.668,0.096,1.337c0,8.02-7.921,18.522-16.987,18.522c-3.34,0-5.63-1.337-7.253-2.864
	c-1.432,3.532-2.099,6.778-2.099,9.738c0,4.201,0.763,9.452,4.581,9.452c17.083,0,27.391-22.532,28.822-25.015
	c0.572-0.954,1.431-1.146,2.671-0.668L387.988,172.603z M351.15,168.402l0.954-1.432l0.86-1.146
	c0.668-0.764,1.145-1.337,1.432-1.814l0.381-0.477l0.191-0.191l-0.191,0.191l-0.381,0.477l-1.527,1.623
	c-0.287,0.382-0.669,0.764-0.954,1.241c-0.382,0.382-0.669,0.86-1.051,1.337l-1.05,1.527l-0.954,1.623l-0.763,1.718l-0.764,1.718
	c-0.285,0.477-0.285,1.05-0.572,1.528c-0.096,0.668-0.287,1.146-0.382,1.527c-0.287,1.051-0.382,1.623-0.382,2.291
	c-0.096,0.287-0.096,0.573,0,0.86v-0.286c0-0.191,0-0.382,0.096-0.573l0.191-0.955l0.287-1.337c0.287-0.382,0.191-0.764,0.478-1.432
	c0.285-0.478,0.285-1.051,0.572-1.528l0.763-1.718c0.287-0.477,0.573-0.955,0.86-1.623c0.287-0.668,0.572-1.146,0.859-1.623
	L351.15,168.402z M352.008,165.729l-0.19,0.287L352.008,165.729c0.096-0.286,0.287-0.382,0.573-0.764
	c0.668-0.668,1.336-1.623,2.386-2.673c0.478-0.668,0.954-1.051,1.623-1.718l1.908-1.815c0.669-0.668,1.432-1.146,2.195-1.814
	c0.764-0.668,1.623-1.05,2.386-1.527c0.86-0.477,1.814-0.86,2.672-1.146c0.764-0.287,1.623-0.573,2.672-0.668
	c0.859,0,1.718-0.096,2.577,0.191c0.287,0,0.287,0.095,0.572,0.095l0.573,0.191l0.573,0.191c0.094,0.096,0.285,0.191,0.476,0.191
	c0.573,0.286,1.145,0.573,1.718,1.05c0.476,0.286,0.859,0.668,1.241,0.954c0.285,0.287,0.381,0.573,0.668,0.668
	c0.096,0.096,0.191,0.191,0.287,0.191l-0.191-0.287l-0.668-0.763c-0.287-0.287-0.764-0.573-1.145-1.051
	c-0.669-0.286-1.051-0.763-1.718-1.146c-0.096,0-0.287-0.096-0.573-0.191c-0.094-0.095-0.19-0.191-0.476-0.286
	c-0.096,0-0.287-0.096-0.669-0.191l-0.572-0.191c-0.954-0.191-1.909-0.287-2.768-0.191s-1.813,0.191-2.863,0.573
	c-0.859,0.286-1.813,0.668-2.671,1.146c-1.05,0.477-1.718,0.955-2.577,1.623l-2.195,1.91c-1.432,1.241-2.386,2.578-3.437,3.724
	c-1.05,1.146-1.622,2.196-2.099,2.864C352.199,165.251,352.104,165.443,352.008,165.729z M371.955,159.618
	c-0.382,0-0.763-0.096-1.145-0.096c-4.867,0-11.834,7.829-15.938,16.326c0.478,0.191,1.05,0.287,1.909,0.287
	C367.278,176.136,370.427,165.729,371.955,159.618z M371.191,195.612l0.572-0.477L371.191,195.612
	c-0.382,0.287-0.954,0.573-1.623,0.955c-0.668,0.286-1.527,0.763-2.386,1.05c-0.478,0.286-0.954,0.286-1.432,0.573
	c-0.476,0.286-0.859,0.382-1.527,0.477c-0.476,0.287-0.954,0.191-1.431,0.477l-1.527,0.287l-1.336,0.286
	c-0.478,0-0.859,0.096-1.241,0.096c-0.287,0.096-0.573,0.096-1.05,0.096c-0.287,0.096-0.573,0.096-0.859,0.096
	c-0.287,0-0.478,0.096-0.573,0.096h-0.191h0.764h0.859c0.476,0,0.763,0,1.05-0.096c0.478,0,0.954,0,1.241-0.096
	c0.287,0,0.763-0.096,1.432-0.191l1.527-0.286c0.476-0.096,0.859-0.096,1.526-0.382c0.478-0.287,0.955-0.191,1.432-0.478
	l1.432-0.573c0.859-0.477,1.718-0.859,2.386-1.337C370.332,196.281,370.809,195.899,371.191,195.612z M370.618,166.301
	c-0.096,0.096-0.096,0.096-0.096,0.191c-0.096,0.096-0.096,0.286-0.191,0.573l-1.05,2.005c-0.096,0.286-0.381,0.668-0.763,1.146
	l-0.954,1.337l-1.145,1.241c-0.478,0.382-0.86,0.859-1.336,1.146l-0.669,0.573c-0.285,0.286-0.476,0.191-0.763,0.477l-1.527,0.764
	c-0.476,0.286-1.05,0.286-1.527,0.573c-0.476,0.191-0.954,0.286-1.431,0.286l-1.145,0.287h-0.955
	c-0.191,0.096-0.381,0.096-0.668,0.096h-0.191h0.859h0.955c0.381,0,0.763-0.096,1.241-0.096l1.431-0.287
	c0.478-0.286,1.051-0.286,1.527-0.573l1.623-0.764c0.287-0.286,0.476-0.191,0.763-0.477l0.669-0.573
	c0.668-0.286,0.954-0.764,1.431-1.146l1.146-1.337l0.954-1.337c0.285-0.477,0.381-0.859,0.668-1.241
	c0.478-0.859,0.573-1.527,0.859-2.005L370.618,166.301z M382.358,133.076c0,1.432-16.129,14.513-18.419,14.513
	s-3.722-5.346-3.722-6.397c0-1.241,5.821-3.914,10.211-7.542c4.486-3.437,6.968-7.066,8.399-7.066
	C380.067,126.584,382.358,131.93,382.358,133.076z M380.162,133.362c0.096-0.096,0.096-0.096,0.191-0.096l-0.572,0.477l-1.623,1.337
	l-2.29,1.814l-2.577,2.101l-1.241,1.146c-0.478,0.286-0.859,0.668-1.336,1.05c-0.859,0.668-1.527,1.146-2.29,1.814
	c-0.668,0.477-1.145,0.955-1.527,1.241l-0.476,0.382c-0.096,0.095-0.096,0.095-0.191,0.095c0.096,0,0.096,0,0.191-0.095
	c0.096-0.096,0.191-0.191,0.476-0.287l1.814-1.146c0.287-0.287,0.668-0.382,1.05-0.668l1.336-0.954
	c0.859-0.668,1.717-1.337,2.577-2.101c0.859-0.668,1.717-1.432,2.577-2.196l2.099-2.005c0.668-0.573,1.145-1.05,1.432-1.432
	L380.162,133.362z M411.975,223.816c0.554-0.922,3.708-6.848,3.708-6.848H175.596c0,0,3.168,5.85,3.712,6.856
	s1.255,1.656,2.376,1.656h227.91C410.716,225.479,411.421,224.737,411.975,223.816z M253.696,292.636
	c-0.371-0.486-0.873-0.866-1.314-1.307c4.823-4.182,1.608-13.511,2.275-23.276c0.667-9.763,1.585-5.035,4.479-15.01
	c2.894-9.973-4.181-20.91-4.181-20.91s-2.573-4.182,7.396,0c9.969,4.182,6.914,13.15,8.199,19.342
	c1.972,16.577,22.661,9.592,48.81-2.617c26.152-12.207,37.773-8.138,34.577-3.779c-24.879,5.088-53.677,26.261-69.486,43.676
	C270.067,304.602,255.75,295.324,253.696,292.636z M300.657,253.751c0.199-0.078,0.404-0.158,0.614-0.241
	c0.4-0.158,0.818-0.325,1.249-0.499c0.088-0.035,0.174-0.07,0.262-0.106c0.821-0.334,1.682-0.693,2.544-1.065
	c0.035-0.015,0.069-0.03,0.104-0.045c3.14-1.36,6.262-2.891,7.437-4.037c0.589-0.575,1.399-1.701,2.428-3.111
	c0.618-0.846,1.314-1.793,2.09-2.784c0.227-0.29,0.454-0.584,0.681-0.88c0.017-0.023,0.035-0.045,0.052-0.068
	c0.213-0.279,0.425-0.56,0.634-0.842c0.032-0.043,0.064-0.085,0.095-0.128c0.203-0.274,0.402-0.548,0.597-0.822
	c0.033-0.047,0.067-0.094,0.1-0.14c0.191-0.27,0.378-0.539,0.558-0.806c0.035-0.051,0.069-0.102,0.103-0.153
	c0.178-0.265,0.35-0.529,0.514-0.789c0.03-0.048,0.059-0.095,0.089-0.143c0.164-0.263,0.32-0.523,0.466-0.778
	c0.022-0.039,0.043-0.077,0.064-0.115c0.147-0.261,0.286-0.518,0.411-0.768c0.013-0.026,0.024-0.051,0.037-0.077
	c0.122-0.249,0.233-0.492,0.33-0.727c0.006-0.016,0.014-0.032,0.02-0.047c0.096-0.237,0.173-0.464,0.239-0.683
	c0.009-0.03,0.02-0.061,0.028-0.091c0.059-0.21,0.099-0.409,0.127-0.6c0.005-0.033,0.011-0.067,0.014-0.099
	c0.021-0.185,0.024-0.359,0.011-0.524c-0.002-0.031-0.005-0.062-0.008-0.092c-0.02-0.16-0.058-0.309-0.115-0.447
	c-0.011-0.026-0.022-0.05-0.034-0.075c-0.065-0.134-0.148-0.257-0.254-0.366c-0.017-0.018-0.038-0.034-0.056-0.051
	c-0.116-0.107-0.251-0.202-0.414-0.279c-0.02-0.009-0.043-0.017-0.063-0.026c-0.176-0.077-0.374-0.14-0.605-0.181
	c-0.012-0.002-0.025-0.003-0.037-0.005c-0.238-0.04-0.505-0.062-0.803-0.063c-0.017,0-0.031-0.002-0.048-0.002
	c-0.12,0-0.252,0.008-0.382,0.015c-0.061,0.003-0.116,0.003-0.178,0.008c-0.198,0.015-0.407,0.036-0.628,0.065
	c-0.908,0.12-1.689,0.34-2.394,0.663c-1.409,0.645-2.513,1.699-3.722,3.187c-0.403,0.496-0.818,1.04-1.259,1.633
	c-0.442,0.593-0.91,1.235-1.421,1.926c-0.766,1.037-1.626,2.187-2.633,3.452c-1.006,1.264-1.943,2.462-2.808,3.584
	c-0.865,1.121-1.658,2.166-2.377,3.122c-0.718,0.956-1.362,1.824-1.929,2.593c-0.317,0.43-1.761,2.564-2.292,3.291
	C298.315,254.453,300.136,253.954,300.657,253.751z M341.341,232.029c-0.007-0.029-0.013-0.058-0.023-0.085
	c-0.017-0.049-0.042-0.095-0.068-0.14c-0.014-0.025-0.027-0.051-0.044-0.075c-0.033-0.045-0.074-0.088-0.117-0.129
	c-0.021-0.021-0.039-0.043-0.063-0.063c-0.053-0.043-0.116-0.083-0.182-0.122c-0.024-0.014-0.044-0.03-0.07-0.044
	c-0.092-0.048-0.197-0.093-0.313-0.133c-0.006-0.002-0.01-0.005-0.016-0.007c-0.124-0.042-0.263-0.079-0.415-0.11
	c-0.034-0.007-0.076-0.012-0.111-0.018c-0.121-0.022-0.246-0.044-0.384-0.06c-0.064-0.008-0.138-0.012-0.205-0.018
	c-0.122-0.011-0.244-0.022-0.378-0.028c-0.086-0.004-0.181-0.005-0.273-0.007c-0.127-0.003-0.255-0.006-0.393-0.005
	c-0.181,0.001-0.379,0.008-0.579,0.016c-0.094,0.004-0.18,0.005-0.278,0.01c-0.309,0.017-0.635,0.04-0.986,0.072
	c-1.011,0.094-1.968,0.36-2.893,0.759c-2.772,1.198-5.247,3.6-7.991,6.178c-0.506,0.475-1.001,0.946-1.482,1.409
	c-0.963,0.926-1.871,1.819-2.698,2.649s-1.571,1.597-2.206,2.27c-0.635,0.673-1.162,1.251-1.553,1.705
	c-0.195,0.227-0.357,0.422-0.48,0.583c0,0,2.402-1.154,6.336-2.658c2.047-0.782,4.242-1.534,6.187-2.251
	c1.111-0.41,2.14-0.808,3.013-1.195c0.436-0.193,0.833-0.384,1.182-0.571c0.349-0.187,0.649-0.372,0.892-0.553
	c0.121-0.091,0.228-0.18,0.319-0.269c0.084-0.082,0.174-0.167,0.269-0.256c0.044-0.041,0.091-0.084,0.137-0.126
	c0.054-0.05,0.107-0.099,0.164-0.15c0.052-0.047,0.107-0.096,0.161-0.144c0.055-0.049,0.109-0.098,0.166-0.148
	c0.058-0.051,0.117-0.103,0.177-0.155c0.059-0.052,0.119-0.104,0.18-0.157c0.079-0.069,0.161-0.14,0.242-0.211
	c0.025-0.022,0.05-0.043,0.075-0.065c0.153-0.133,0.308-0.268,0.467-0.406c0.015-0.013,0.03-0.026,0.045-0.039
	c0.113-0.098,0.227-0.198,0.341-0.298c0.025-0.022,0.05-0.044,0.076-0.066c0.103-0.09,0.206-0.182,0.309-0.273
	c0.033-0.029,0.066-0.059,0.099-0.088c0.1-0.089,0.2-0.179,0.299-0.269c0.032-0.029,0.065-0.059,0.097-0.088
	c0.101-0.092,0.201-0.183,0.3-0.276c0.03-0.028,0.061-0.056,0.091-0.084c0.107-0.1,0.213-0.201,0.318-0.301
	c0.019-0.018,0.038-0.036,0.057-0.054c0.121-0.117,0.24-0.234,0.356-0.35c0.002-0.002,0.005-0.005,0.007-0.007
	c0.358-0.36,0.686-0.715,0.964-1.057c0.017-0.021,0.033-0.042,0.049-0.063c0.072-0.09,0.142-0.18,0.206-0.268
	c0.021-0.029,0.04-0.058,0.061-0.087c0.056-0.078,0.109-0.156,0.158-0.233c0.021-0.033,0.04-0.066,0.06-0.099
	c0.043-0.071,0.083-0.141,0.119-0.21c0.018-0.034,0.034-0.068,0.05-0.102c0.031-0.065,0.06-0.13,0.084-0.193
	c0.013-0.035,0.025-0.068,0.036-0.102c0.02-0.061,0.036-0.12,0.049-0.178c0.007-0.033,0.014-0.066,0.018-0.098
	c0.008-0.056,0.012-0.111,0.013-0.165c0-0.031,0.001-0.062-0.001-0.093C341.363,232.129,341.353,232.078,341.341,232.029z
	 M297.798,250.889c4.597-7.213,8.182-16.687,7.974-18.46c-0.657-0.814-1.569-1.259-2.585-1.259c-1.135,0-2.31,0.526-3.401,1.521
	c-0.037,0.035-0.076,0.066-0.118,0.095c-1.172,1.034-7.64,13.052-13.529,24.588c2.327-0.561,5.778-1.458,7.609-2.254
	c0.117-0.05,0.365-0.147,0.645-0.256c0.23-0.088,0.474-0.182,0.676-0.263C295.869,254.316,297.553,251.223,297.798,250.889z"/>
</svg>
