<?xml version="1.0" encoding="utf-8"?>
<!-- Generator: Adobe Illustrator 17.0.0, SVG Export Plug-In . SVG Version: 6.00 Build 0)  -->
<!DOCTYPE svg PUBLIC "-//W3C//DTD SVG 1.1//EN" "http://www.w3.org/Graphics/SVG/1.1/DTD/svg11.dtd">
<svg version="1.1" id="Calque_1" xmlns="http://www.w3.org/2000/svg" xmlns:xlink="http://www.w3.org/1999/xlink" x="0px" y="0px"
	 width="294.624px" height="295.699px" viewBox="0 0 294.624 295.699" enable-background="new 0 0 294.624 295.699"
	 xml:space="preserve">
<path fill="#00AA8D" d="M279.826,107.034c-22.874-57.079-81.113-92.743-142.398-85.957c0.531,3.207,1.062,6.414,1.593,9.622
	c3.206-7.759,10.941-9.629,8.661-19.364c-2.051-8.757-15.422-6.092-21.821-4.963c-6.34,1.118-16.386,3.459-17.616,10.812
	c-0.548,3.277-0.564,6.925,1.406,9.813c2.319,3.397,8.422,3.977,11.43,7.266c0.379-3.501,0.758-7.002,1.137-10.503
	C60.432,38.795,18.487,93.834,16.469,156.797c-0.214,6.69,4.295,6.613,4.507,0C22.847,98.422,66.141,48.678,122.219,35.031
	c3.146-0.766,2.881-8.596,1.137-10.503c-1.405-1.537-2.765-2.794-4.483-3.996c-1.873-1.31-6.267-1.83-7.159-4.057
	c0.193,1.828,0.386,3.656,0.58,5.484c-0.038,0.225,5.449-1.967,5.911-2.164c3.115-1.326,6.541-1.956,9.855-2.541
	c3.637-0.642,14.227-2.298,16.54,1.79c-0.372-1.622-0.744-3.244-1.116-4.867c-0.02,0.599-0.04,1.197-0.06,1.796
	c0.372-1.622,0.744-3.244,1.116-4.867c-2.908,4.229-6.667,6.687-8.705,11.619c-0.577,1.395-1.551,9.97,1.593,9.622
	c59.331-6.57,116.908,27,139.211,82.655C278.822,120.452,280.884,109.674,279.826,107.034L279.826,107.034z M113.775,86.989
	c0.902-0.901,5.521,8.455,5.521,9.582c0,1.24-30.986,24.8-61.635,72.257c20.846-2.142,42.029-0.902,43.833,0.563
	c1.014,1.015-0.564,8.906-2.254,8.906c-36.62-1.465-52.058,2.931-52.959,2.029c-0.564-0.451-0.788-3.269-0.901-5.636
	c-1.465-0.563-2.142-1.353-2.142-2.367c0-2.367,18.93-33.141,59.382-74.173c-9.015-0.339-21.634-0.113-35.156,2.592
	c-1.352,0.339-2.027,0.113-2.14-1.24c-0.338-1.24-0.564-6.312-0.902-8.68c0-1.24,21.523-4.622,48.001-2.48L113.775,86.989z
	 M53.943,158.344c1.014-1.69,2.253-3.156,3.492-4.847c1.239-1.691,2.142-3.269,3.381-4.96c1.239-1.465,2.029-3.044,2.93-4.284
	c0.901-1.24,1.578-2.255,2.029-3.044l0.563-0.902l0.226-0.338H66.45l-3.155,4.058c-1.915,2.593-4.282,5.636-6.648,8.906
	c-1.239,1.691-2.142,3.269-3.381,4.96c-1.014,1.691-2.027,3.044-2.817,4.396c-0.788,1.127-1.352,2.142-1.916,3.157
	c-0.337,0.451-0.45,0.563-0.563,0.901c-0.113,0.113-0.113,0.226-0.113,0.339h0.113l0.226-0.339c0.113-0.338,0.337-0.563,0.563-0.789
	c0.338-0.338,0.564-0.788,0.902-1.353c0.337-0.451,0.788-0.901,1.239-1.69c0.451-0.564,0.901-1.24,1.352-2.03L53.943,158.344z
	 M73.887,134.559c1.239-1.353,1.803-2.48,2.591-3.269l1.014-1.24l-1.014,1.24c-0.788,0.789-1.465,1.803-2.704,3.157
	c-2.253,2.705-5.07,6.312-8.112,9.92l-4.058,5.523l-3.267,4.96c-0.451,0.789-0.902,1.24-1.239,2.029
	c-0.338,0.564-0.564,1.128-0.902,1.578c-0.338,0.451-0.451,0.676-0.563,1.015l-0.226,0.338l0.226-0.338
	c0.111-0.339,0.224-0.563,0.563-1.015c0.338-0.451,0.677-0.789,1.014-1.578l1.353-1.916c0.901-1.465,2.14-3.157,3.379-4.847
	c1.239-1.804,2.704-3.607,4.169-5.411c1.352-1.916,2.817-3.719,4.169-5.41L73.887,134.559z M101.042,89.131h-0.338
	c-0.337,0-0.675,0-1.014-0.112c-0.901-0.113-2.029-0.226-3.718-0.226c-1.465,0-3.268-0.113-5.184,0
	c-1.915,0-3.831,0.113-5.972,0.226c-2.14,0.112-4.056,0.112-5.972,0.451c-1.915,0.338-3.718,0.338-5.183,0.676
	s-2.704,0.451-3.605,0.563c-0.564,0.113-0.902,0.226-1.015,0.226h-0.337l4.957-0.339c3.042-0.338,7.099-0.451,11.155-0.789
	l5.972-0.338c1.014,0,1.916-0.113,2.704-0.113c0.902,0,1.69-0.113,2.48-0.113c1.689,0,2.817-0.113,3.718-0.113H101.042z
	 M85.042,169.392h-0.226H85.042c0.113,0,0.113,0.113,0.451,0.113c0.451,0,1.014,0.113,1.803,0.113l5.183,0.338l5.183,0.338
	c0.79,0.113,1.352,0.113,1.69,0.226h0.677c0-0.113,0-0.113-0.113-0.113c-0.226,0-0.338,0-0.451-0.113
	c-0.451-0.113-0.901-0.338-1.69-0.451c-0.788-0.339-1.578-0.339-2.479-0.451c-0.901-0.113-1.803-0.226-2.817-0.226
	c-2.029-0.112-3.718-0.112-5.183,0c-0.79,0-1.352,0.113-1.803,0.113C85.38,169.392,85.155,169.392,85.042,169.392z M173.267,147.635
	c0,4.284-16.113,31.225-26.817,31.225c-3.943,0-10.479-7.553-10.479-10.709v-0.902c-6.198,6.2-13.296,11.611-17.691,11.611
	c-7.099,0-15.775-11.272-15.775-17.134c0-18.149,29.184-45.767,41.467-45.767c9.69,0,12.281,15.782,9.577,15.782
	c-3.042,0-1.69-6.2-6.873-6.2c-10.705,0-36.621,26.603-36.621,41.596c0,2.029,0.901,3.044,2.591,3.044
	c9.579,0,26.142-23.222,30.874-29.308c0.563-1.015,1.014-1.465,1.352-1.465c1.239,0,7.55,7.439,7.55,8.905
	c0,1.353-9.691,19.614-7.211,19.614c8.789,0,20.619-24.912,22.986-27.279C169.098,139.745,173.267,145.156,173.267,147.635z
	 M111.519,143.915c1.239-1.465,2.253-3.043,3.494-4.509c1.239-1.465,2.479-2.931,3.831-4.396c2.591-2.818,5.521-5.524,8.338-7.891
	c1.352-1.24,2.704-2.367,4.056-3.269c1.352-1.014,2.704-1.916,3.945-2.705c1.352-0.902,2.479-1.578,3.492-2.029
	c0.451-0.339,1.014-0.339,1.465-0.676c0.338-0.113,0.79-0.339,1.352-0.451l1.126-0.338c0.226-0.113,0.451-0.113,0.79-0.113
	c0.338,0,0.338-0.113,0.451-0.113h0.224h-0.675c-0.338,0-0.451,0.113-0.79,0.113l-1.126,0.226c-0.45,0.113-0.901,0.338-1.465,0.451
	c-0.45,0.339-1.014,0.339-1.465,0.676c-1.239,0.451-2.366,1.015-3.605,1.804c-2.591,1.465-5.297,3.494-8.338,5.862
	c-2.818,2.367-5.747,4.847-8.452,7.891c-1.239,1.465-2.591,2.93-3.831,4.508c-1.239,1.465-2.366,3.044-3.381,4.509
	c-1.014,1.465-2.027,3.044-2.817,4.509l-1.126,2.255l-1.014,2.142c-0.564,1.353-0.902,2.592-1.239,3.832
	c-0.338,0.564-0.338,1.128-0.451,1.578l-0.226,1.465c-0.113,0.789-0.113,1.465-0.113,1.917v0.788v-0.225
	c0-0.226,0-0.451,0.113-0.563v-0.789l0.226-1.128c0-0.451,0.113-0.902,0.338-1.353c0.113-0.789,0.338-1.353,0.45-1.691
	c0.338-1.127,0.79-2.367,1.353-3.719l1.014-2.03c0.338-0.789,0.788-1.353,1.239-2.142
	C109.49,146.846,110.505,145.381,111.519,143.915z M133.492,167.588l0.675-0.676l-0.675,0.563l-1.916,1.465
	c-0.788,0.789-1.69,1.353-2.704,2.142c-1.014,0.789-1.916,1.465-3.155,2.255l-1.69,1.127c-0.45,0.339-1.014,0.563-1.578,0.902
	c-0.563,0.338-1.126,0.451-1.689,0.789c-0.451,0.338-1.015,0.338-1.465,0.451c-0.113,0.113-0.338,0.113-0.677,0.113
	c-0.113,0.113-0.338,0.113-0.675,0.113h-1.015c-0.338,0-0.563-0.113-0.675-0.113h-0.226h0.226l0.675,0.226
	c0.338,0,0.677,0.113,1.015,0h0.675c0.338,0,0.564,0,0.789-0.113c0.45-0.113,1.014-0.113,1.465-0.451
	c0.563-0.112,1.126-0.338,1.689-0.676l1.69-0.901l1.69-1.128c1.239-0.789,2.142-1.578,3.155-2.367
	c1.014-0.788,1.803-1.353,2.591-2.142C132.477,168.602,133.041,168.039,133.492,167.588z M122.224,167.024l-0.113,0.113
	L122.224,167.024l0.45-0.338c0.451-0.339,0.79-0.676,1.578-1.128c0.564-0.451,1.239-1.014,2.029-1.803
	c0.788-0.563,1.465-1.353,2.253-2.142c0.79-0.789,1.465-1.465,2.029-2.255c0.788-0.789,1.239-1.465,1.803-2.029
	c0.45-0.563,0.788-1.24,1.126-1.578l0.45-0.563l-0.563,0.563l-1.239,1.353c-0.564,0.563-1.015,1.24-1.803,2.029l-2.142,2.255
	l-2.14,2.142c-0.79,0.789-1.352,1.353-1.916,1.804c-0.788,0.563-1.126,1.014-1.465,1.353L122.224,167.024z M138.336,120.807
	l0.564-0.338c0,0.113,0,0.113-0.113,0.113c-0.113,0-0.338,0.113-0.451,0.113c-0.337,0.338-0.788,0.451-1.578,0.789
	c-0.563,0.338-1.239,0.676-2.027,1.24c-0.79,0.451-1.578,0.902-2.366,1.465l-2.142,1.69c-0.788,0.564-1.352,1.128-1.803,1.578
	l-1.239,1.24l-0.451,0.451c0.113-0.113,0.226-0.339,0.451-0.451l1.352-1.015l4.169-3.157l2.254-1.578
	c0.788-0.451,1.239-0.901,2.027-1.24C137.548,121.371,137.999,121.145,138.336,120.807z M217.209,146.508
	c-2.142,4.734-19.944,32.352-30.762,32.352c-1.916,0-10.479-4.284-10.479-12.851c0-11.385,11.606-27.279,11.606-32.691
	c0-0.563-2.93-2.142-5.07-2.931L173.49,148.2c-2.029,4.058-7.663-4.284-6.198-6.989c2.142-4.509,4.507-9.92,6.762-14.429
	c-5.071-2.705-9.916-6.425-9.916-14.09c0-13.753,17.127-33.93,21.971-33.93c3.606,0,12.283,6.425,12.283,12.625
	c0,4.735-5.972,19.614-13.973,35.396c5.184,2.142,12.395,5.749,12.395,10.258s-15.1,32.691-11.268,32.691
	c7.887,0,21.971-24.349,24.226-28.407C211.576,138.279,218.674,143.127,217.209,146.508z M171.574,96.571l1.239-2.255l1.353-2.029
	l1.126-1.803c0.788-1.24,1.352-1.917,1.803-2.706l0.675-1.014l-0.226,0.225l-0.563,0.676c-0.451,0.789-1.241,1.353-2.029,2.593
	c-0.451,0.451-0.901,1.127-1.352,1.69l-1.352,2.03c-0.564,0.789-1.014,1.353-1.465,2.142l-1.352,2.367
	c-0.338,0.789-0.79,1.578-1.239,2.367l-1.015,2.367l-0.901,2.367c-0.338,0.788-0.451,1.465-0.564,2.029
	c-0.337,0.789-0.337,1.353-0.45,1.803c-0.113,0.339-0.113,0.902-0.113,1.465c-0.113,0.338,0,0.563-0.113,0.902v0.226
	c0,0.113,0,0.113,0.113,0.113v-0.338c0-0.339,0-0.563,0.113-0.902l0.337-1.353c0.113-0.338,0.226-0.902,0.564-1.691l0.79-2.029
	l0.901-2.255l2.366-4.621L171.574,96.571z M168.194,121.145c-0.113,0-0.113,0-0.113-0.113c0,0-0.113-0.113-0.226-0.451
	c-0.338-0.339-0.451-0.789-0.79-1.353c-0.337-0.564-0.563-1.24-0.788-2.142l-0.226-1.24c0-0.451-0.113-0.901-0.113-1.353v-1.24
	c0.113-0.339,0.113-0.789,0.113-1.353l0.338-2.255c0.338-0.563,0.338-1.128,0.451-1.578c0-0.113,0.113-0.338,0.113-0.451v-0.113
	c-0.113,0-0.113,0-0.113,0.113s-0.113,0.338-0.113,0.451l-0.564,1.578l-0.226,1.015c-0.113,0.451-0.226,0.901-0.226,1.24
	c-0.113,0.226-0.113,0.676-0.113,1.24c-0.111,0.339-0.111,0.789-0.111,1.353c0,0.339,0.111,0.789,0.224,1.353
	c0,0.339,0.113,0.789,0.226,1.353l0.902,2.142c0.337,0.563,0.563,1.014,0.901,1.353L168.194,121.145z M175.968,122.723
	c9.015-18.6,15.551-35.622,13.86-35.622c-2.704,0-17.465,18.375-17.465,29.196C172.363,119.342,173.602,121.032,175.968,122.723z
	 M183.405,110.662c0.789-1.691,1.352-3.044,1.916-4.735l0.901-2.142l0.677-2.029c0.337-1.24,0.563-2.255,0.901-3.044
	c0-0.338,0.113-0.563,0.113-0.902c0-0.112,0-0.225,0.113-0.225v-0.113c-0.113,0.338-0.226,0.789-0.451,1.127
	c-0.338,0.789-0.788,1.691-1.239,2.931c-0.901,2.593-2.253,5.636-3.718,8.793c-1.352,3.269-2.817,6.425-3.832,8.793l-1.802,3.945
	h0.113l0.675-1.014c0.338-0.789,0.901-1.465,1.465-2.705c0.564-1.015,1.239-2.255,2.029-3.946L183.405,110.662z M178.335,161.163
	c0,0.112,0,0.225-0.113,0.338c-0.113,0.113-0.226,0.451-0.338,0.902c-0.113,0.902-0.338,1.803-0.451,3.044
	c0,1.24,0.113,2.254,0.338,3.043l0.338,1.015c0.113,0.113,0.113,0.226,0.113,0.339c-0.113-0.113-0.113-0.226-0.113-0.339
	c0-0.339-0.113-0.563-0.113-1.015c-0.113-0.901-0.113-1.803-0.113-3.043l0.338-2.931c0-0.564,0-0.902,0.113-1.015V161.163z
	 M181.828,151.468c0-0.113,0-0.113,0.113-0.226C181.828,151.355,181.828,151.355,181.828,151.468
	c-0.113,0.113-0.113,0.338-0.226,0.676l-0.901,2.48l-1.014,3.494c-0.113,0.563-0.338,1.24-0.451,2.029l-0.338,2.029
	c-0.113,0.789-0.226,1.353-0.226,2.142c-0.111,0.789,0,1.24-0.111,2.029l0.224,1.917l0.226,0.901c0,0.226,0.113,0.451,0.226,0.789
	c0,0.226,0.113,0.451,0.226,0.789c0.113,0.339,0.226,0.226,0.338,0.563c0.113,0.451,0.45,0.677,0.563,1.015l0.451,0.451
	c0,0.113,0,0.113,0.113,0.226h0.113h-0.113c0,0,0-0.113-0.113-0.226l-0.338-0.563c-0.338-0.338-0.451-0.676-0.563-1.014
	c-0.113-0.113-0.113-0.226-0.226-0.564c-0.113-0.338-0.226-0.563-0.226-0.676l-0.226-0.901c0-0.339-0.113-0.451-0.113-0.789
	c-0.113-0.564-0.113-1.128-0.113-1.917c0-0.789,0-1.24,0.113-2.029c0-0.789,0.113-1.24,0.226-2.029c0.113-0.789,0-1.353,0.338-2.142
	c0.113-0.789,0.113-1.353,0.45-1.916c0.338-1.353,0.564-2.48,0.902-3.495c0.226-1.24,0.45-2.029,0.675-2.48
	C181.715,151.919,181.828,151.806,181.828,151.468z M257.32,140.759c1.803,0.902,3.381,2.931,3.381,5.523
	c0,4.509-17.016,32.578-36.396,32.578c-8.676,0-19.043-12.513-19.043-23.334c0-15.443,16.901-39.341,29.297-39.341
	c10.816,0,12.507,12.061,11.268,12.061c-0.338,0-0.564,0-0.677-0.113c0.113,0.339,0.113,0.789,0.113,1.578
	c0,9.469-9.352,21.869-20.057,21.869c-3.943,0-6.648-1.578-8.563-3.382c-1.69,4.171-2.479,8.003-2.479,11.498
	c0,4.96,0.901,11.159,5.408,11.159c20.169,0,32.339-26.603,34.03-29.534c0.675-1.127,1.689-1.353,3.154-0.789L257.32,140.759z
	 M213.826,135.8l1.126-1.691l1.015-1.353c0.788-0.902,1.352-1.578,1.69-2.142l0.45-0.563l0.226-0.226l-0.226,0.226l-0.45,0.563
	l-1.803,1.916c-0.338,0.451-0.789,0.902-1.126,1.465c-0.451,0.451-0.79,1.015-1.241,1.578l-1.239,1.803l-1.126,1.917l-0.901,2.029
	l-0.902,2.029c-0.337,0.563-0.337,1.24-0.675,1.804c-0.113,0.789-0.338,1.353-0.451,1.803c-0.338,1.24-0.451,1.917-0.451,2.705
	c-0.113,0.339-0.113,0.677,0,1.015v-0.338c0-0.226,0-0.451,0.113-0.677l0.226-1.127l0.338-1.578c0.338-0.451,0.226-0.902,0.564-1.69
	c0.337-0.564,0.337-1.24,0.675-1.804l0.901-2.029c0.338-0.563,0.677-1.128,1.015-1.916c0.338-0.789,0.675-1.353,1.014-1.917
	L213.826,135.8z M214.839,132.643l-0.224,0.339L214.839,132.643c0.113-0.338,0.338-0.451,0.677-0.902
	c0.788-0.789,1.578-1.916,2.817-3.156c0.564-0.789,1.126-1.24,1.916-2.029l2.253-2.142c0.79-0.788,1.69-1.353,2.591-2.142
	c0.902-0.788,1.916-1.24,2.817-1.803c1.015-0.563,2.142-1.015,3.155-1.353c0.902-0.339,1.916-0.676,3.155-0.789
	c1.014,0,2.029-0.113,3.042,0.226c0.338,0,0.338,0.112,0.675,0.112l0.677,0.226l0.677,0.226c0.111,0.113,0.337,0.226,0.563,0.226
	c0.677,0.338,1.352,0.676,2.029,1.24c0.563,0.338,1.014,0.789,1.465,1.127c0.337,0.339,0.45,0.676,0.788,0.789
	c0.113,0.113,0.226,0.226,0.338,0.226l-0.226-0.339l-0.788-0.901c-0.338-0.339-0.902-0.677-1.352-1.24
	c-0.79-0.338-1.241-0.901-2.029-1.353c-0.113,0-0.338-0.113-0.677-0.226c-0.111-0.112-0.224-0.225-0.563-0.338
	c-0.113,0-0.338-0.113-0.79-0.226l-0.675-0.225c-1.126-0.226-2.254-0.338-3.268-0.226c-1.014,0.113-2.14,0.226-3.381,0.676
	c-1.014,0.338-2.14,0.789-3.154,1.353c-1.239,0.563-2.029,1.127-3.042,1.916l-2.591,2.255c-1.69,1.465-2.817,3.044-4.058,4.396
	c-1.239,1.353-1.915,2.593-2.479,3.382C215.065,132.08,214.952,132.305,214.839,132.643z M238.39,125.429
	c-0.451,0-0.901-0.113-1.352-0.113c-5.747,0-13.972,9.243-18.817,19.276c0.564,0.226,1.239,0.339,2.254,0.339
	C232.869,144.93,236.587,132.643,238.39,125.429z M237.489,167.926l0.675-0.563L237.489,167.926
	c-0.451,0.339-1.126,0.676-1.916,1.128c-0.788,0.338-1.803,0.901-2.817,1.24c-0.564,0.338-1.126,0.338-1.69,0.676
	c-0.563,0.338-1.014,0.451-1.803,0.563c-0.563,0.339-1.126,0.226-1.689,0.563l-1.803,0.339l-1.578,0.338
	c-0.564,0-1.014,0.113-1.465,0.113c-0.338,0.113-0.677,0.113-1.239,0.113c-0.338,0.113-0.677,0.113-1.014,0.113
	c-0.338,0-0.564,0.113-0.677,0.113h-0.226h0.902h1.014c0.563,0,0.901,0,1.239-0.113c0.564,0,1.126,0,1.465-0.113
	c0.338,0,0.901-0.113,1.69-0.226l1.803-0.338c0.563-0.113,1.014-0.113,1.802-0.451c0.564-0.339,1.128-0.226,1.69-0.564l1.69-0.676
	c1.014-0.563,2.029-1.014,2.817-1.578C236.474,168.715,237.038,168.265,237.489,167.926z M236.812,133.319
	c-0.113,0.113-0.113,0.113-0.113,0.226c-0.113,0.113-0.113,0.338-0.226,0.676l-1.239,2.367c-0.113,0.338-0.45,0.788-0.901,1.353
	l-1.126,1.578l-1.352,1.465c-0.564,0.451-1.015,1.014-1.578,1.353l-0.79,0.676c-0.337,0.338-0.563,0.225-0.901,0.563l-1.803,0.902
	c-0.563,0.338-1.239,0.338-1.803,0.676c-0.563,0.225-1.126,0.338-1.689,0.338l-1.352,0.339h-1.128
	c-0.226,0.113-0.45,0.113-0.788,0.113h-0.226h1.014h1.128c0.45,0,0.901-0.113,1.465-0.113l1.689-0.339
	c0.564-0.338,1.241-0.338,1.803-0.676l1.916-0.902c0.338-0.338,0.563-0.225,0.901-0.563l0.789-0.676
	c0.788-0.338,1.126-0.902,1.689-1.353l1.353-1.578l1.126-1.578c0.337-0.563,0.45-1.014,0.788-1.465
	c0.564-1.014,0.677-1.803,1.014-2.367L236.812,133.319z M250.672,94.091c0,1.691-19.043,17.135-21.747,17.135
	s-4.395-6.312-4.395-7.553c0-1.465,6.873-4.621,12.056-8.905c5.297-4.059,8.227-8.342,9.917-8.342
	C247.968,86.425,250.672,92.738,250.672,94.091z M248.08,94.429c0.113-0.113,0.113-0.113,0.226-0.113l-0.675,0.563l-1.916,1.578
	L243.01,98.6l-3.042,2.48l-1.465,1.353c-0.564,0.338-1.014,0.789-1.578,1.24c-1.014,0.789-1.803,1.353-2.704,2.142
	c-0.788,0.563-1.352,1.128-1.803,1.465l-0.563,0.451c-0.113,0.112-0.113,0.112-0.226,0.112c0.113,0,0.113,0,0.226-0.112
	c0.113-0.113,0.226-0.226,0.563-0.339l2.142-1.353c0.338-0.338,0.788-0.451,1.239-0.789l1.578-1.127
	c1.014-0.789,2.027-1.578,3.042-2.48c1.014-0.789,2.027-1.691,3.042-2.592l2.479-2.367c0.788-0.676,1.352-1.24,1.69-1.691
	L248.08,94.429z M285.641,201.225c0.654-1.088,4.378-8.085,4.378-8.085H6.554c0,0,3.74,6.907,4.383,8.095
	c0.643,1.187,1.482,1.955,2.806,1.955H282.83C284.154,203.189,284.987,202.313,285.641,201.225z M98.764,282.479
	c-0.439-0.574-1.031-1.023-1.551-1.543c5.694-4.938,1.898-15.952,2.685-27.481c0.787-11.527,1.871-5.945,5.288-17.722
	c3.417-11.775-4.936-24.687-4.936-24.687s-3.038-4.938,8.732,0c11.77,4.938,8.163,15.526,9.68,22.837
	c2.328,19.572,26.755,11.325,57.629-3.09c30.877-14.413,44.598-9.608,40.824-4.461c-29.374,6.007-63.375,31.006-82.04,51.567
	C118.093,296.607,101.19,285.653,98.764,282.479z M154.21,236.569c0.235-0.092,0.477-0.186,0.725-0.284
	c0.473-0.187,0.966-0.383,1.475-0.589c0.103-0.042,0.205-0.083,0.31-0.125c0.97-0.394,1.986-0.818,3.003-1.257
	c0.041-0.018,0.082-0.035,0.123-0.053c3.708-1.606,7.393-3.414,8.781-4.767c0.695-0.679,1.652-2.009,2.867-3.673
	c0.729-0.998,1.552-2.117,2.467-3.287c0.268-0.342,0.536-0.689,0.804-1.038c0.02-0.027,0.041-0.053,0.062-0.08
	c0.252-0.329,0.502-0.661,0.749-0.994c0.037-0.05,0.075-0.101,0.112-0.151c0.239-0.324,0.474-0.648,0.705-0.971
	c0.039-0.055,0.079-0.11,0.118-0.166c0.226-0.319,0.446-0.636,0.659-0.952c0.041-0.06,0.081-0.12,0.122-0.181
	c0.21-0.313,0.413-0.624,0.606-0.931c0.036-0.056,0.07-0.112,0.105-0.168c0.193-0.311,0.378-0.617,0.551-0.919
	c0.026-0.046,0.05-0.09,0.076-0.136c0.174-0.308,0.338-0.612,0.485-0.907c0.015-0.031,0.028-0.06,0.043-0.09
	c0.145-0.294,0.276-0.581,0.389-0.858c0.008-0.018,0.017-0.038,0.024-0.056c0.113-0.28,0.205-0.547,0.282-0.807
	c0.011-0.035,0.023-0.072,0.033-0.107c0.069-0.247,0.117-0.483,0.149-0.708c0.006-0.039,0.013-0.079,0.017-0.117
	c0.025-0.218,0.028-0.424,0.012-0.619c-0.003-0.036-0.006-0.073-0.01-0.108c-0.023-0.189-0.068-0.365-0.135-0.528
	c-0.012-0.03-0.027-0.059-0.041-0.089c-0.076-0.159-0.175-0.304-0.3-0.432c-0.021-0.021-0.045-0.04-0.067-0.061
	c-0.137-0.126-0.297-0.238-0.489-0.329c-0.023-0.011-0.051-0.02-0.075-0.03c-0.208-0.091-0.441-0.165-0.714-0.214
	c-0.014-0.002-0.03-0.003-0.044-0.006c-0.28-0.048-0.596-0.073-0.948-0.075c-0.02,0-0.037-0.002-0.057-0.002
	c-0.142,0-0.297,0.009-0.451,0.017c-0.071,0.004-0.137,0.003-0.211,0.009c-0.234,0.017-0.481,0.042-0.741,0.077
	c-1.073,0.142-1.995,0.402-2.826,0.782c-1.664,0.761-2.967,2.006-4.395,3.763c-0.476,0.585-0.966,1.227-1.487,1.928
	c-0.521,0.7-1.074,1.458-1.677,2.274c-0.904,1.225-1.92,2.582-3.108,4.075c-1.188,1.493-2.294,2.907-3.316,4.231
	c-1.022,1.324-1.958,2.557-2.806,3.686c-0.848,1.129-1.608,2.154-2.277,3.062c-0.374,0.507-2.08,3.027-2.706,3.886
	C151.446,237.398,153.595,236.809,154.21,236.569z M202.245,210.922c-0.008-0.034-0.015-0.068-0.027-0.101
	c-0.02-0.057-0.049-0.112-0.081-0.166c-0.017-0.029-0.031-0.06-0.052-0.088c-0.038-0.054-0.088-0.103-0.139-0.153
	c-0.025-0.024-0.046-0.05-0.074-0.074c-0.062-0.051-0.137-0.098-0.215-0.144c-0.029-0.017-0.052-0.036-0.083-0.052
	c-0.109-0.057-0.232-0.109-0.369-0.157c-0.007-0.002-0.012-0.005-0.019-0.008c-0.147-0.049-0.311-0.093-0.49-0.13
	c-0.04-0.008-0.09-0.014-0.132-0.022c-0.143-0.026-0.29-0.051-0.454-0.07c-0.076-0.009-0.162-0.014-0.243-0.021
	c-0.144-0.013-0.288-0.026-0.446-0.033c-0.102-0.005-0.214-0.006-0.322-0.008c-0.15-0.004-0.301-0.007-0.463-0.006
	c-0.214,0.001-0.447,0.01-0.683,0.019c-0.111,0.004-0.213,0.006-0.329,0.012c-0.364,0.02-0.75,0.047-1.164,0.085
	c-1.194,0.111-2.324,0.425-3.415,0.896c-3.273,1.415-6.195,4.25-9.434,7.294c-0.597,0.561-1.182,1.117-1.75,1.663
	c-1.137,1.093-2.209,2.148-3.185,3.128c-0.976,0.98-1.855,1.885-2.605,2.68c-0.75,0.794-1.372,1.477-1.833,2.013
	c-0.231,0.268-0.421,0.499-0.567,0.688c0,0,2.836-1.363,7.48-3.138c2.417-0.924,5.009-1.811,7.304-2.658
	c1.312-0.484,2.527-0.954,3.557-1.411c0.515-0.228,0.984-0.453,1.396-0.674c0.412-0.221,0.766-0.439,1.053-0.653
	c0.143-0.107,0.269-0.213,0.377-0.318c0.099-0.097,0.206-0.198,0.317-0.302c0.052-0.048,0.108-0.099,0.162-0.149
	c0.064-0.059,0.127-0.117,0.194-0.177c0.061-0.055,0.126-0.113,0.19-0.17c0.065-0.058,0.129-0.115,0.196-0.175
	c0.068-0.06,0.138-0.122,0.208-0.183c0.07-0.061,0.14-0.123,0.212-0.186c0.094-0.082,0.19-0.165,0.286-0.249
	c0.029-0.026,0.058-0.051,0.088-0.077c0.181-0.157,0.364-0.316,0.551-0.479c0.018-0.015,0.036-0.031,0.054-0.047
	c0.133-0.116,0.268-0.234,0.403-0.352c0.03-0.026,0.059-0.052,0.089-0.078c0.122-0.107,0.243-0.214,0.365-0.322
	c0.039-0.035,0.078-0.069,0.117-0.104c0.118-0.105,0.236-0.211,0.353-0.317c0.038-0.035,0.077-0.069,0.115-0.104
	c0.119-0.108,0.237-0.217,0.354-0.325c0.036-0.033,0.072-0.066,0.107-0.099c0.127-0.118,0.252-0.237,0.375-0.355
	c0.022-0.021,0.045-0.043,0.067-0.064c0.143-0.138,0.284-0.276,0.42-0.413c0.003-0.003,0.006-0.006,0.008-0.008
	c0.422-0.424,0.81-0.844,1.138-1.248c0.02-0.025,0.038-0.049,0.058-0.074c0.085-0.107,0.167-0.212,0.243-0.316
	c0.025-0.035,0.048-0.068,0.072-0.103c0.066-0.093,0.129-0.185,0.186-0.275c0.025-0.039,0.047-0.078,0.071-0.117
	c0.05-0.084,0.098-0.167,0.141-0.248c0.021-0.041,0.04-0.08,0.059-0.12c0.037-0.077,0.071-0.154,0.1-0.228
	c0.016-0.041,0.029-0.081,0.042-0.121c0.024-0.071,0.043-0.142,0.058-0.21c0.009-0.039,0.016-0.078,0.022-0.116
	c0.01-0.067,0.014-0.131,0.015-0.195c0-0.037,0.001-0.074-0.002-0.109C202.271,211.04,202.259,210.98,202.245,210.922z
	 M150.834,233.19c5.428-8.517,9.661-19.701,9.414-21.796c-0.776-0.961-1.853-1.487-3.052-1.487c-1.341,0-2.728,0.621-4.015,1.795
	c-0.044,0.041-0.09,0.078-0.139,0.113c-1.384,1.221-9.02,15.41-15.974,29.031c2.747-0.662,6.822-1.721,8.983-2.661
	c0.138-0.06,0.431-0.173,0.762-0.302c0.272-0.104,0.559-0.215,0.798-0.31C148.557,237.235,150.546,233.584,150.834,233.19z"/>
</svg>
